[2024-01-16T16:25:22.611+0100] {processor.py:161} INFO - Started process (PID=102587) to work on /home/ensai/Documents/COURS_3A/DATAOPS/cours_project_dataops/projet_conso_electrique_gaz/airflow/airflowvenv/lib/python3.8/site-packages/airflow/example_dags/example_local_kubernetes_executor.py
[2024-01-16T16:25:22.612+0100] {processor.py:830} INFO - Processing file /home/ensai/Documents/COURS_3A/DATAOPS/cours_project_dataops/projet_conso_electrique_gaz/airflow/airflowvenv/lib/python3.8/site-packages/airflow/example_dags/example_local_kubernetes_executor.py for tasks to queue
[2024-01-16T16:25:22.613+0100] {logging_mixin.py:188} INFO - [2024-01-16T16:25:22.612+0100] {dagbag.py:538} INFO - Filling up the DagBag from /home/ensai/Documents/COURS_3A/DATAOPS/cours_project_dataops/projet_conso_electrique_gaz/airflow/airflowvenv/lib/python3.8/site-packages/airflow/example_dags/example_local_kubernetes_executor.py
[2024-01-16T16:25:22.615+0100] {logging_mixin.py:188} INFO - [2024-01-16T16:25:22.615+0100] {example_local_kubernetes_executor.py:39} WARNING - Could not import DAGs in example_local_kubernetes_executor.py
Traceback (most recent call last):
  File "/home/ensai/Documents/COURS_3A/DATAOPS/cours_project_dataops/projet_conso_electrique_gaz/airflow/airflowvenv/lib/python3.8/site-packages/airflow/example_dags/example_local_kubernetes_executor.py", line 37, in <module>
    from kubernetes.client import models as k8s
ModuleNotFoundError: No module named 'kubernetes'
[2024-01-16T16:25:22.615+0100] {logging_mixin.py:188} INFO - [2024-01-16T16:25:22.615+0100] {example_local_kubernetes_executor.py:40} WARNING - Install Kubernetes dependencies with: pip install apache-airflow[cncf.kubernetes]
[2024-01-16T16:25:22.616+0100] {processor.py:842} WARNING - No viable dags retrieved from /home/ensai/Documents/COURS_3A/DATAOPS/cours_project_dataops/projet_conso_electrique_gaz/airflow/airflowvenv/lib/python3.8/site-packages/airflow/example_dags/example_local_kubernetes_executor.py
[2024-01-16T16:25:22.623+0100] {processor.py:183} INFO - Processing /home/ensai/Documents/COURS_3A/DATAOPS/cours_project_dataops/projet_conso_electrique_gaz/airflow/airflowvenv/lib/python3.8/site-packages/airflow/example_dags/example_local_kubernetes_executor.py took 0.014 seconds
[2024-01-16T16:26:15.520+0100] {processor.py:161} INFO - Started process (PID=103011) to work on /home/ensai/Documents/COURS_3A/DATAOPS/cours_project_dataops/projet_conso_electrique_gaz/airflow/airflowvenv/lib/python3.8/site-packages/airflow/example_dags/example_local_kubernetes_executor.py
[2024-01-16T16:26:15.522+0100] {processor.py:830} INFO - Processing file /home/ensai/Documents/COURS_3A/DATAOPS/cours_project_dataops/projet_conso_electrique_gaz/airflow/airflowvenv/lib/python3.8/site-packages/airflow/example_dags/example_local_kubernetes_executor.py for tasks to queue
[2024-01-16T16:26:15.523+0100] {logging_mixin.py:188} INFO - [2024-01-16T16:26:15.523+0100] {dagbag.py:538} INFO - Filling up the DagBag from /home/ensai/Documents/COURS_3A/DATAOPS/cours_project_dataops/projet_conso_electrique_gaz/airflow/airflowvenv/lib/python3.8/site-packages/airflow/example_dags/example_local_kubernetes_executor.py
[2024-01-16T16:26:15.525+0100] {logging_mixin.py:188} INFO - [2024-01-16T16:26:15.525+0100] {example_local_kubernetes_executor.py:39} WARNING - Could not import DAGs in example_local_kubernetes_executor.py
Traceback (most recent call last):
  File "/home/ensai/Documents/COURS_3A/DATAOPS/cours_project_dataops/projet_conso_electrique_gaz/airflow/airflowvenv/lib/python3.8/site-packages/airflow/example_dags/example_local_kubernetes_executor.py", line 37, in <module>
    from kubernetes.client import models as k8s
ModuleNotFoundError: No module named 'kubernetes'
[2024-01-16T16:26:15.526+0100] {logging_mixin.py:188} INFO - [2024-01-16T16:26:15.526+0100] {example_local_kubernetes_executor.py:40} WARNING - Install Kubernetes dependencies with: pip install apache-airflow[cncf.kubernetes]
[2024-01-16T16:26:15.526+0100] {processor.py:842} WARNING - No viable dags retrieved from /home/ensai/Documents/COURS_3A/DATAOPS/cours_project_dataops/projet_conso_electrique_gaz/airflow/airflowvenv/lib/python3.8/site-packages/airflow/example_dags/example_local_kubernetes_executor.py
[2024-01-16T16:26:15.533+0100] {processor.py:183} INFO - Processing /home/ensai/Documents/COURS_3A/DATAOPS/cours_project_dataops/projet_conso_electrique_gaz/airflow/airflowvenv/lib/python3.8/site-packages/airflow/example_dags/example_local_kubernetes_executor.py took 0.014 seconds
