[2024-01-16T14:51:47.284+0000] {processor.py:161} INFO - Started process (PID=67) to work on /home/airflow/.local/lib/python3.8/site-packages/airflow/example_dags/example_nested_branch_dag.py
[2024-01-16T14:51:47.285+0000] {processor.py:830} INFO - Processing file /home/airflow/.local/lib/python3.8/site-packages/airflow/example_dags/example_nested_branch_dag.py for tasks to queue
[2024-01-16T14:51:47.288+0000] {logging_mixin.py:188} INFO - [2024-01-16T14:51:47.287+0000] {dagbag.py:538} INFO - Filling up the DagBag from /home/airflow/.local/lib/python3.8/site-packages/airflow/example_dags/example_nested_branch_dag.py
[2024-01-16T14:51:47.303+0000] {processor.py:840} INFO - DAG(s) 'example_nested_branch_dag' retrieved from /home/airflow/.local/lib/python3.8/site-packages/airflow/example_dags/example_nested_branch_dag.py
[2024-01-16T14:51:47.316+0000] {logging_mixin.py:188} INFO - [2024-01-16T14:51:47.316+0000] {dag.py:3033} INFO - Sync 1 DAGs
[2024-01-16T14:51:47.353+0000] {logging_mixin.py:188} INFO - [2024-01-16T14:51:47.353+0000] {dag.py:3820} INFO - Setting next_dagrun for example_nested_branch_dag to 2024-01-15T00:00:00+00:00, run_after=2024-01-16T00:00:00+00:00
[2024-01-16T14:51:47.381+0000] {processor.py:183} INFO - Processing /home/airflow/.local/lib/python3.8/site-packages/airflow/example_dags/example_nested_branch_dag.py took 0.101 seconds
[2024-01-16T14:52:18.824+0000] {processor.py:161} INFO - Started process (PID=122) to work on /home/airflow/.local/lib/python3.8/site-packages/airflow/example_dags/example_nested_branch_dag.py
[2024-01-16T14:52:18.825+0000] {processor.py:830} INFO - Processing file /home/airflow/.local/lib/python3.8/site-packages/airflow/example_dags/example_nested_branch_dag.py for tasks to queue
[2024-01-16T14:52:18.827+0000] {logging_mixin.py:188} INFO - [2024-01-16T14:52:18.826+0000] {dagbag.py:538} INFO - Filling up the DagBag from /home/airflow/.local/lib/python3.8/site-packages/airflow/example_dags/example_nested_branch_dag.py
[2024-01-16T14:52:18.837+0000] {processor.py:840} INFO - DAG(s) 'example_nested_branch_dag' retrieved from /home/airflow/.local/lib/python3.8/site-packages/airflow/example_dags/example_nested_branch_dag.py
[2024-01-16T14:52:18.960+0000] {logging_mixin.py:188} INFO - [2024-01-16T14:52:18.960+0000] {dag.py:3033} INFO - Sync 1 DAGs
[2024-01-16T14:52:18.983+0000] {logging_mixin.py:188} INFO - [2024-01-16T14:52:18.983+0000] {dag.py:3820} INFO - Setting next_dagrun for example_nested_branch_dag to 2024-01-15T00:00:00+00:00, run_after=2024-01-16T00:00:00+00:00
[2024-01-16T14:52:19.002+0000] {processor.py:183} INFO - Processing /home/airflow/.local/lib/python3.8/site-packages/airflow/example_dags/example_nested_branch_dag.py took 0.181 seconds
[2024-01-16T14:52:49.699+0000] {processor.py:161} INFO - Started process (PID=177) to work on /home/airflow/.local/lib/python3.8/site-packages/airflow/example_dags/example_nested_branch_dag.py
[2024-01-16T14:52:49.700+0000] {processor.py:830} INFO - Processing file /home/airflow/.local/lib/python3.8/site-packages/airflow/example_dags/example_nested_branch_dag.py for tasks to queue
[2024-01-16T14:52:49.702+0000] {logging_mixin.py:188} INFO - [2024-01-16T14:52:49.702+0000] {dagbag.py:538} INFO - Filling up the DagBag from /home/airflow/.local/lib/python3.8/site-packages/airflow/example_dags/example_nested_branch_dag.py
[2024-01-16T14:52:49.712+0000] {processor.py:840} INFO - DAG(s) 'example_nested_branch_dag' retrieved from /home/airflow/.local/lib/python3.8/site-packages/airflow/example_dags/example_nested_branch_dag.py
[2024-01-16T14:52:49.739+0000] {logging_mixin.py:188} INFO - [2024-01-16T14:52:49.739+0000] {dag.py:3033} INFO - Sync 1 DAGs
[2024-01-16T14:52:49.772+0000] {logging_mixin.py:188} INFO - [2024-01-16T14:52:49.772+0000] {dag.py:3820} INFO - Setting next_dagrun for example_nested_branch_dag to 2024-01-15T00:00:00+00:00, run_after=2024-01-16T00:00:00+00:00
[2024-01-16T14:52:49.793+0000] {processor.py:183} INFO - Processing /home/airflow/.local/lib/python3.8/site-packages/airflow/example_dags/example_nested_branch_dag.py took 0.098 seconds
[2024-01-16T14:53:20.270+0000] {processor.py:161} INFO - Started process (PID=232) to work on /home/airflow/.local/lib/python3.8/site-packages/airflow/example_dags/example_nested_branch_dag.py
[2024-01-16T14:53:20.271+0000] {processor.py:830} INFO - Processing file /home/airflow/.local/lib/python3.8/site-packages/airflow/example_dags/example_nested_branch_dag.py for tasks to queue
[2024-01-16T14:53:20.273+0000] {logging_mixin.py:188} INFO - [2024-01-16T14:53:20.272+0000] {dagbag.py:538} INFO - Filling up the DagBag from /home/airflow/.local/lib/python3.8/site-packages/airflow/example_dags/example_nested_branch_dag.py
[2024-01-16T14:53:20.283+0000] {processor.py:840} INFO - DAG(s) 'example_nested_branch_dag' retrieved from /home/airflow/.local/lib/python3.8/site-packages/airflow/example_dags/example_nested_branch_dag.py
[2024-01-16T14:53:20.307+0000] {logging_mixin.py:188} INFO - [2024-01-16T14:53:20.306+0000] {dag.py:3033} INFO - Sync 1 DAGs
[2024-01-16T14:53:20.333+0000] {logging_mixin.py:188} INFO - [2024-01-16T14:53:20.333+0000] {dag.py:3820} INFO - Setting next_dagrun for example_nested_branch_dag to 2024-01-15T00:00:00+00:00, run_after=2024-01-16T00:00:00+00:00
[2024-01-16T14:53:20.357+0000] {processor.py:183} INFO - Processing /home/airflow/.local/lib/python3.8/site-packages/airflow/example_dags/example_nested_branch_dag.py took 0.090 seconds
[2024-01-16T14:53:50.956+0000] {processor.py:161} INFO - Started process (PID=287) to work on /home/airflow/.local/lib/python3.8/site-packages/airflow/example_dags/example_nested_branch_dag.py
[2024-01-16T14:53:50.957+0000] {processor.py:830} INFO - Processing file /home/airflow/.local/lib/python3.8/site-packages/airflow/example_dags/example_nested_branch_dag.py for tasks to queue
[2024-01-16T14:53:50.959+0000] {logging_mixin.py:188} INFO - [2024-01-16T14:53:50.959+0000] {dagbag.py:538} INFO - Filling up the DagBag from /home/airflow/.local/lib/python3.8/site-packages/airflow/example_dags/example_nested_branch_dag.py
[2024-01-16T14:53:50.972+0000] {processor.py:840} INFO - DAG(s) 'example_nested_branch_dag' retrieved from /home/airflow/.local/lib/python3.8/site-packages/airflow/example_dags/example_nested_branch_dag.py
[2024-01-16T14:53:50.999+0000] {logging_mixin.py:188} INFO - [2024-01-16T14:53:50.999+0000] {dag.py:3033} INFO - Sync 1 DAGs
[2024-01-16T14:53:51.029+0000] {logging_mixin.py:188} INFO - [2024-01-16T14:53:51.029+0000] {dag.py:3820} INFO - Setting next_dagrun for example_nested_branch_dag to 2024-01-15T00:00:00+00:00, run_after=2024-01-16T00:00:00+00:00
[2024-01-16T14:53:51.048+0000] {processor.py:183} INFO - Processing /home/airflow/.local/lib/python3.8/site-packages/airflow/example_dags/example_nested_branch_dag.py took 0.096 seconds
[2024-01-16T14:54:21.220+0000] {processor.py:161} INFO - Started process (PID=341) to work on /home/airflow/.local/lib/python3.8/site-packages/airflow/example_dags/example_nested_branch_dag.py
[2024-01-16T14:54:21.222+0000] {processor.py:830} INFO - Processing file /home/airflow/.local/lib/python3.8/site-packages/airflow/example_dags/example_nested_branch_dag.py for tasks to queue
[2024-01-16T14:54:21.226+0000] {logging_mixin.py:188} INFO - [2024-01-16T14:54:21.225+0000] {dagbag.py:538} INFO - Filling up the DagBag from /home/airflow/.local/lib/python3.8/site-packages/airflow/example_dags/example_nested_branch_dag.py
[2024-01-16T14:54:21.243+0000] {processor.py:840} INFO - DAG(s) 'example_nested_branch_dag' retrieved from /home/airflow/.local/lib/python3.8/site-packages/airflow/example_dags/example_nested_branch_dag.py
[2024-01-16T14:54:21.283+0000] {logging_mixin.py:188} INFO - [2024-01-16T14:54:21.282+0000] {dag.py:3033} INFO - Sync 1 DAGs
[2024-01-16T14:54:21.330+0000] {logging_mixin.py:188} INFO - [2024-01-16T14:54:21.330+0000] {dag.py:3820} INFO - Setting next_dagrun for example_nested_branch_dag to 2024-01-15T00:00:00+00:00, run_after=2024-01-16T00:00:00+00:00
[2024-01-16T14:54:21.362+0000] {processor.py:183} INFO - Processing /home/airflow/.local/lib/python3.8/site-packages/airflow/example_dags/example_nested_branch_dag.py took 0.147 seconds
[2024-01-16T14:54:51.698+0000] {processor.py:161} INFO - Started process (PID=396) to work on /home/airflow/.local/lib/python3.8/site-packages/airflow/example_dags/example_nested_branch_dag.py
[2024-01-16T14:54:51.699+0000] {processor.py:830} INFO - Processing file /home/airflow/.local/lib/python3.8/site-packages/airflow/example_dags/example_nested_branch_dag.py for tasks to queue
[2024-01-16T14:54:51.702+0000] {logging_mixin.py:188} INFO - [2024-01-16T14:54:51.701+0000] {dagbag.py:538} INFO - Filling up the DagBag from /home/airflow/.local/lib/python3.8/site-packages/airflow/example_dags/example_nested_branch_dag.py
[2024-01-16T14:54:51.715+0000] {processor.py:840} INFO - DAG(s) 'example_nested_branch_dag' retrieved from /home/airflow/.local/lib/python3.8/site-packages/airflow/example_dags/example_nested_branch_dag.py
[2024-01-16T14:54:51.739+0000] {logging_mixin.py:188} INFO - [2024-01-16T14:54:51.739+0000] {dag.py:3033} INFO - Sync 1 DAGs
[2024-01-16T14:54:51.765+0000] {logging_mixin.py:188} INFO - [2024-01-16T14:54:51.765+0000] {dag.py:3820} INFO - Setting next_dagrun for example_nested_branch_dag to 2024-01-15T00:00:00+00:00, run_after=2024-01-16T00:00:00+00:00
[2024-01-16T14:54:51.783+0000] {processor.py:183} INFO - Processing /home/airflow/.local/lib/python3.8/site-packages/airflow/example_dags/example_nested_branch_dag.py took 0.089 seconds
[2024-01-16T14:55:22.840+0000] {processor.py:161} INFO - Started process (PID=451) to work on /home/airflow/.local/lib/python3.8/site-packages/airflow/example_dags/example_nested_branch_dag.py
[2024-01-16T14:55:22.840+0000] {processor.py:830} INFO - Processing file /home/airflow/.local/lib/python3.8/site-packages/airflow/example_dags/example_nested_branch_dag.py for tasks to queue
[2024-01-16T14:55:22.844+0000] {logging_mixin.py:188} INFO - [2024-01-16T14:55:22.843+0000] {dagbag.py:538} INFO - Filling up the DagBag from /home/airflow/.local/lib/python3.8/site-packages/airflow/example_dags/example_nested_branch_dag.py
[2024-01-16T14:55:22.863+0000] {processor.py:840} INFO - DAG(s) 'example_nested_branch_dag' retrieved from /home/airflow/.local/lib/python3.8/site-packages/airflow/example_dags/example_nested_branch_dag.py
[2024-01-16T14:55:22.898+0000] {logging_mixin.py:188} INFO - [2024-01-16T14:55:22.897+0000] {dag.py:3033} INFO - Sync 1 DAGs
[2024-01-16T14:55:22.932+0000] {logging_mixin.py:188} INFO - [2024-01-16T14:55:22.932+0000] {dag.py:3820} INFO - Setting next_dagrun for example_nested_branch_dag to 2024-01-15T00:00:00+00:00, run_after=2024-01-16T00:00:00+00:00
[2024-01-16T14:55:22.955+0000] {processor.py:183} INFO - Processing /home/airflow/.local/lib/python3.8/site-packages/airflow/example_dags/example_nested_branch_dag.py took 0.119 seconds
[2024-01-16T14:55:52.983+0000] {processor.py:161} INFO - Started process (PID=506) to work on /home/airflow/.local/lib/python3.8/site-packages/airflow/example_dags/example_nested_branch_dag.py
[2024-01-16T14:55:52.984+0000] {processor.py:830} INFO - Processing file /home/airflow/.local/lib/python3.8/site-packages/airflow/example_dags/example_nested_branch_dag.py for tasks to queue
[2024-01-16T14:55:52.986+0000] {logging_mixin.py:188} INFO - [2024-01-16T14:55:52.986+0000] {dagbag.py:538} INFO - Filling up the DagBag from /home/airflow/.local/lib/python3.8/site-packages/airflow/example_dags/example_nested_branch_dag.py
[2024-01-16T14:55:52.997+0000] {processor.py:840} INFO - DAG(s) 'example_nested_branch_dag' retrieved from /home/airflow/.local/lib/python3.8/site-packages/airflow/example_dags/example_nested_branch_dag.py
[2024-01-16T14:55:53.025+0000] {logging_mixin.py:188} INFO - [2024-01-16T14:55:53.025+0000] {dag.py:3033} INFO - Sync 1 DAGs
[2024-01-16T14:55:53.056+0000] {logging_mixin.py:188} INFO - [2024-01-16T14:55:53.056+0000] {dag.py:3820} INFO - Setting next_dagrun for example_nested_branch_dag to 2024-01-15T00:00:00+00:00, run_after=2024-01-16T00:00:00+00:00
[2024-01-16T14:55:53.077+0000] {processor.py:183} INFO - Processing /home/airflow/.local/lib/python3.8/site-packages/airflow/example_dags/example_nested_branch_dag.py took 0.096 seconds
[2024-01-16T14:56:23.231+0000] {processor.py:161} INFO - Started process (PID=561) to work on /home/airflow/.local/lib/python3.8/site-packages/airflow/example_dags/example_nested_branch_dag.py
[2024-01-16T14:56:23.232+0000] {processor.py:830} INFO - Processing file /home/airflow/.local/lib/python3.8/site-packages/airflow/example_dags/example_nested_branch_dag.py for tasks to queue
[2024-01-16T14:56:23.234+0000] {logging_mixin.py:188} INFO - [2024-01-16T14:56:23.234+0000] {dagbag.py:538} INFO - Filling up the DagBag from /home/airflow/.local/lib/python3.8/site-packages/airflow/example_dags/example_nested_branch_dag.py
[2024-01-16T14:56:23.243+0000] {processor.py:840} INFO - DAG(s) 'example_nested_branch_dag' retrieved from /home/airflow/.local/lib/python3.8/site-packages/airflow/example_dags/example_nested_branch_dag.py
[2024-01-16T14:56:23.267+0000] {logging_mixin.py:188} INFO - [2024-01-16T14:56:23.267+0000] {dag.py:3033} INFO - Sync 1 DAGs
[2024-01-16T14:56:23.290+0000] {logging_mixin.py:188} INFO - [2024-01-16T14:56:23.290+0000] {dag.py:3820} INFO - Setting next_dagrun for example_nested_branch_dag to 2024-01-15T00:00:00+00:00, run_after=2024-01-16T00:00:00+00:00
[2024-01-16T14:56:23.307+0000] {processor.py:183} INFO - Processing /home/airflow/.local/lib/python3.8/site-packages/airflow/example_dags/example_nested_branch_dag.py took 0.078 seconds
[2024-01-16T14:56:54.129+0000] {processor.py:161} INFO - Started process (PID=616) to work on /home/airflow/.local/lib/python3.8/site-packages/airflow/example_dags/example_nested_branch_dag.py
[2024-01-16T14:56:54.130+0000] {processor.py:830} INFO - Processing file /home/airflow/.local/lib/python3.8/site-packages/airflow/example_dags/example_nested_branch_dag.py for tasks to queue
[2024-01-16T14:56:54.131+0000] {logging_mixin.py:188} INFO - [2024-01-16T14:56:54.131+0000] {dagbag.py:538} INFO - Filling up the DagBag from /home/airflow/.local/lib/python3.8/site-packages/airflow/example_dags/example_nested_branch_dag.py
[2024-01-16T14:56:54.144+0000] {processor.py:840} INFO - DAG(s) 'example_nested_branch_dag' retrieved from /home/airflow/.local/lib/python3.8/site-packages/airflow/example_dags/example_nested_branch_dag.py
[2024-01-16T14:56:54.165+0000] {logging_mixin.py:188} INFO - [2024-01-16T14:56:54.165+0000] {dag.py:3033} INFO - Sync 1 DAGs
[2024-01-16T14:56:54.188+0000] {logging_mixin.py:188} INFO - [2024-01-16T14:56:54.188+0000] {dag.py:3820} INFO - Setting next_dagrun for example_nested_branch_dag to 2024-01-15T00:00:00+00:00, run_after=2024-01-16T00:00:00+00:00
[2024-01-16T14:56:54.204+0000] {processor.py:183} INFO - Processing /home/airflow/.local/lib/python3.8/site-packages/airflow/example_dags/example_nested_branch_dag.py took 0.078 seconds
[2024-01-16T14:57:24.374+0000] {processor.py:161} INFO - Started process (PID=671) to work on /home/airflow/.local/lib/python3.8/site-packages/airflow/example_dags/example_nested_branch_dag.py
[2024-01-16T14:57:24.375+0000] {processor.py:830} INFO - Processing file /home/airflow/.local/lib/python3.8/site-packages/airflow/example_dags/example_nested_branch_dag.py for tasks to queue
[2024-01-16T14:57:24.378+0000] {logging_mixin.py:188} INFO - [2024-01-16T14:57:24.378+0000] {dagbag.py:538} INFO - Filling up the DagBag from /home/airflow/.local/lib/python3.8/site-packages/airflow/example_dags/example_nested_branch_dag.py
[2024-01-16T14:57:24.392+0000] {processor.py:840} INFO - DAG(s) 'example_nested_branch_dag' retrieved from /home/airflow/.local/lib/python3.8/site-packages/airflow/example_dags/example_nested_branch_dag.py
[2024-01-16T14:57:24.423+0000] {logging_mixin.py:188} INFO - [2024-01-16T14:57:24.423+0000] {dag.py:3033} INFO - Sync 1 DAGs
[2024-01-16T14:57:24.457+0000] {logging_mixin.py:188} INFO - [2024-01-16T14:57:24.457+0000] {dag.py:3820} INFO - Setting next_dagrun for example_nested_branch_dag to 2024-01-15T00:00:00+00:00, run_after=2024-01-16T00:00:00+00:00
[2024-01-16T14:57:24.482+0000] {processor.py:183} INFO - Processing /home/airflow/.local/lib/python3.8/site-packages/airflow/example_dags/example_nested_branch_dag.py took 0.112 seconds
[2024-01-16T14:57:55.405+0000] {processor.py:161} INFO - Started process (PID=726) to work on /home/airflow/.local/lib/python3.8/site-packages/airflow/example_dags/example_nested_branch_dag.py
[2024-01-16T14:57:55.406+0000] {processor.py:830} INFO - Processing file /home/airflow/.local/lib/python3.8/site-packages/airflow/example_dags/example_nested_branch_dag.py for tasks to queue
[2024-01-16T14:57:55.408+0000] {logging_mixin.py:188} INFO - [2024-01-16T14:57:55.408+0000] {dagbag.py:538} INFO - Filling up the DagBag from /home/airflow/.local/lib/python3.8/site-packages/airflow/example_dags/example_nested_branch_dag.py
[2024-01-16T14:57:55.419+0000] {processor.py:840} INFO - DAG(s) 'example_nested_branch_dag' retrieved from /home/airflow/.local/lib/python3.8/site-packages/airflow/example_dags/example_nested_branch_dag.py
[2024-01-16T14:57:55.441+0000] {logging_mixin.py:188} INFO - [2024-01-16T14:57:55.441+0000] {dag.py:3033} INFO - Sync 1 DAGs
[2024-01-16T14:57:55.466+0000] {logging_mixin.py:188} INFO - [2024-01-16T14:57:55.466+0000] {dag.py:3820} INFO - Setting next_dagrun for example_nested_branch_dag to 2024-01-15T00:00:00+00:00, run_after=2024-01-16T00:00:00+00:00
[2024-01-16T14:57:55.485+0000] {processor.py:183} INFO - Processing /home/airflow/.local/lib/python3.8/site-packages/airflow/example_dags/example_nested_branch_dag.py took 0.083 seconds
[2024-01-16T14:58:25.533+0000] {processor.py:161} INFO - Started process (PID=780) to work on /home/airflow/.local/lib/python3.8/site-packages/airflow/example_dags/example_nested_branch_dag.py
[2024-01-16T14:58:25.533+0000] {processor.py:830} INFO - Processing file /home/airflow/.local/lib/python3.8/site-packages/airflow/example_dags/example_nested_branch_dag.py for tasks to queue
[2024-01-16T14:58:25.535+0000] {logging_mixin.py:188} INFO - [2024-01-16T14:58:25.535+0000] {dagbag.py:538} INFO - Filling up the DagBag from /home/airflow/.local/lib/python3.8/site-packages/airflow/example_dags/example_nested_branch_dag.py
[2024-01-16T14:58:25.544+0000] {processor.py:840} INFO - DAG(s) 'example_nested_branch_dag' retrieved from /home/airflow/.local/lib/python3.8/site-packages/airflow/example_dags/example_nested_branch_dag.py
[2024-01-16T14:58:25.565+0000] {logging_mixin.py:188} INFO - [2024-01-16T14:58:25.565+0000] {dag.py:3033} INFO - Sync 1 DAGs
[2024-01-16T14:58:25.586+0000] {logging_mixin.py:188} INFO - [2024-01-16T14:58:25.586+0000] {dag.py:3820} INFO - Setting next_dagrun for example_nested_branch_dag to 2024-01-15T00:00:00+00:00, run_after=2024-01-16T00:00:00+00:00
[2024-01-16T14:58:25.601+0000] {processor.py:183} INFO - Processing /home/airflow/.local/lib/python3.8/site-packages/airflow/example_dags/example_nested_branch_dag.py took 0.072 seconds
[2024-01-16T14:58:55.666+0000] {processor.py:161} INFO - Started process (PID=834) to work on /home/airflow/.local/lib/python3.8/site-packages/airflow/example_dags/example_nested_branch_dag.py
[2024-01-16T14:58:55.667+0000] {processor.py:830} INFO - Processing file /home/airflow/.local/lib/python3.8/site-packages/airflow/example_dags/example_nested_branch_dag.py for tasks to queue
[2024-01-16T14:58:55.669+0000] {logging_mixin.py:188} INFO - [2024-01-16T14:58:55.668+0000] {dagbag.py:538} INFO - Filling up the DagBag from /home/airflow/.local/lib/python3.8/site-packages/airflow/example_dags/example_nested_branch_dag.py
[2024-01-16T14:58:55.680+0000] {processor.py:840} INFO - DAG(s) 'example_nested_branch_dag' retrieved from /home/airflow/.local/lib/python3.8/site-packages/airflow/example_dags/example_nested_branch_dag.py
[2024-01-16T14:58:55.702+0000] {logging_mixin.py:188} INFO - [2024-01-16T14:58:55.702+0000] {dag.py:3033} INFO - Sync 1 DAGs
[2024-01-16T14:58:55.725+0000] {logging_mixin.py:188} INFO - [2024-01-16T14:58:55.725+0000] {dag.py:3820} INFO - Setting next_dagrun for example_nested_branch_dag to 2024-01-15T00:00:00+00:00, run_after=2024-01-16T00:00:00+00:00
[2024-01-16T14:58:55.742+0000] {processor.py:183} INFO - Processing /home/airflow/.local/lib/python3.8/site-packages/airflow/example_dags/example_nested_branch_dag.py took 0.080 seconds
[2024-01-16T14:59:26.454+0000] {processor.py:161} INFO - Started process (PID=889) to work on /home/airflow/.local/lib/python3.8/site-packages/airflow/example_dags/example_nested_branch_dag.py
[2024-01-16T14:59:26.455+0000] {processor.py:830} INFO - Processing file /home/airflow/.local/lib/python3.8/site-packages/airflow/example_dags/example_nested_branch_dag.py for tasks to queue
[2024-01-16T14:59:26.460+0000] {logging_mixin.py:188} INFO - [2024-01-16T14:59:26.459+0000] {dagbag.py:538} INFO - Filling up the DagBag from /home/airflow/.local/lib/python3.8/site-packages/airflow/example_dags/example_nested_branch_dag.py
[2024-01-16T14:59:26.476+0000] {processor.py:840} INFO - DAG(s) 'example_nested_branch_dag' retrieved from /home/airflow/.local/lib/python3.8/site-packages/airflow/example_dags/example_nested_branch_dag.py
[2024-01-16T14:59:26.511+0000] {logging_mixin.py:188} INFO - [2024-01-16T14:59:26.511+0000] {dag.py:3033} INFO - Sync 1 DAGs
[2024-01-16T14:59:26.547+0000] {logging_mixin.py:188} INFO - [2024-01-16T14:59:26.547+0000] {dag.py:3820} INFO - Setting next_dagrun for example_nested_branch_dag to 2024-01-15T00:00:00+00:00, run_after=2024-01-16T00:00:00+00:00
[2024-01-16T14:59:26.578+0000] {processor.py:183} INFO - Processing /home/airflow/.local/lib/python3.8/site-packages/airflow/example_dags/example_nested_branch_dag.py took 0.128 seconds
[2024-01-16T14:59:56.761+0000] {processor.py:161} INFO - Started process (PID=949) to work on /home/airflow/.local/lib/python3.8/site-packages/airflow/example_dags/example_nested_branch_dag.py
[2024-01-16T14:59:56.762+0000] {processor.py:830} INFO - Processing file /home/airflow/.local/lib/python3.8/site-packages/airflow/example_dags/example_nested_branch_dag.py for tasks to queue
[2024-01-16T14:59:56.764+0000] {logging_mixin.py:188} INFO - [2024-01-16T14:59:56.764+0000] {dagbag.py:538} INFO - Filling up the DagBag from /home/airflow/.local/lib/python3.8/site-packages/airflow/example_dags/example_nested_branch_dag.py
[2024-01-16T14:59:56.776+0000] {processor.py:840} INFO - DAG(s) 'example_nested_branch_dag' retrieved from /home/airflow/.local/lib/python3.8/site-packages/airflow/example_dags/example_nested_branch_dag.py
[2024-01-16T14:59:56.800+0000] {logging_mixin.py:188} INFO - [2024-01-16T14:59:56.800+0000] {dag.py:3033} INFO - Sync 1 DAGs
[2024-01-16T14:59:56.826+0000] {logging_mixin.py:188} INFO - [2024-01-16T14:59:56.826+0000] {dag.py:3820} INFO - Setting next_dagrun for example_nested_branch_dag to 2024-01-15T00:00:00+00:00, run_after=2024-01-16T00:00:00+00:00
[2024-01-16T14:59:56.843+0000] {processor.py:183} INFO - Processing /home/airflow/.local/lib/python3.8/site-packages/airflow/example_dags/example_nested_branch_dag.py took 0.088 seconds
[2024-01-16T15:00:26.926+0000] {processor.py:161} INFO - Started process (PID=1004) to work on /home/airflow/.local/lib/python3.8/site-packages/airflow/example_dags/example_nested_branch_dag.py
[2024-01-16T15:00:26.927+0000] {processor.py:830} INFO - Processing file /home/airflow/.local/lib/python3.8/site-packages/airflow/example_dags/example_nested_branch_dag.py for tasks to queue
[2024-01-16T15:00:26.929+0000] {logging_mixin.py:188} INFO - [2024-01-16T15:00:26.929+0000] {dagbag.py:538} INFO - Filling up the DagBag from /home/airflow/.local/lib/python3.8/site-packages/airflow/example_dags/example_nested_branch_dag.py
[2024-01-16T15:00:26.940+0000] {processor.py:840} INFO - DAG(s) 'example_nested_branch_dag' retrieved from /home/airflow/.local/lib/python3.8/site-packages/airflow/example_dags/example_nested_branch_dag.py
[2024-01-16T15:00:26.965+0000] {logging_mixin.py:188} INFO - [2024-01-16T15:00:26.964+0000] {dag.py:3033} INFO - Sync 1 DAGs
[2024-01-16T15:00:26.992+0000] {logging_mixin.py:188} INFO - [2024-01-16T15:00:26.992+0000] {dag.py:3820} INFO - Setting next_dagrun for example_nested_branch_dag to 2024-01-15T00:00:00+00:00, run_after=2024-01-16T00:00:00+00:00
[2024-01-16T15:00:27.009+0000] {processor.py:183} INFO - Processing /home/airflow/.local/lib/python3.8/site-packages/airflow/example_dags/example_nested_branch_dag.py took 0.089 seconds
[2024-01-16T15:00:57.100+0000] {processor.py:161} INFO - Started process (PID=1058) to work on /home/airflow/.local/lib/python3.8/site-packages/airflow/example_dags/example_nested_branch_dag.py
[2024-01-16T15:00:57.101+0000] {processor.py:830} INFO - Processing file /home/airflow/.local/lib/python3.8/site-packages/airflow/example_dags/example_nested_branch_dag.py for tasks to queue
[2024-01-16T15:00:57.103+0000] {logging_mixin.py:188} INFO - [2024-01-16T15:00:57.103+0000] {dagbag.py:538} INFO - Filling up the DagBag from /home/airflow/.local/lib/python3.8/site-packages/airflow/example_dags/example_nested_branch_dag.py
[2024-01-16T15:00:57.116+0000] {processor.py:840} INFO - DAG(s) 'example_nested_branch_dag' retrieved from /home/airflow/.local/lib/python3.8/site-packages/airflow/example_dags/example_nested_branch_dag.py
[2024-01-16T15:00:57.143+0000] {logging_mixin.py:188} INFO - [2024-01-16T15:00:57.143+0000] {dag.py:3033} INFO - Sync 1 DAGs
[2024-01-16T15:00:57.175+0000] {logging_mixin.py:188} INFO - [2024-01-16T15:00:57.175+0000] {dag.py:3820} INFO - Setting next_dagrun for example_nested_branch_dag to 2024-01-15T00:00:00+00:00, run_after=2024-01-16T00:00:00+00:00
[2024-01-16T15:00:57.197+0000] {processor.py:183} INFO - Processing /home/airflow/.local/lib/python3.8/site-packages/airflow/example_dags/example_nested_branch_dag.py took 0.100 seconds
[2024-01-16T15:01:27.378+0000] {processor.py:161} INFO - Started process (PID=1114) to work on /home/airflow/.local/lib/python3.8/site-packages/airflow/example_dags/example_nested_branch_dag.py
[2024-01-16T15:01:27.378+0000] {processor.py:830} INFO - Processing file /home/airflow/.local/lib/python3.8/site-packages/airflow/example_dags/example_nested_branch_dag.py for tasks to queue
[2024-01-16T15:01:27.380+0000] {logging_mixin.py:188} INFO - [2024-01-16T15:01:27.380+0000] {dagbag.py:538} INFO - Filling up the DagBag from /home/airflow/.local/lib/python3.8/site-packages/airflow/example_dags/example_nested_branch_dag.py
[2024-01-16T15:01:27.391+0000] {processor.py:840} INFO - DAG(s) 'example_nested_branch_dag' retrieved from /home/airflow/.local/lib/python3.8/site-packages/airflow/example_dags/example_nested_branch_dag.py
[2024-01-16T15:01:27.417+0000] {logging_mixin.py:188} INFO - [2024-01-16T15:01:27.417+0000] {dag.py:3033} INFO - Sync 1 DAGs
[2024-01-16T15:01:27.444+0000] {logging_mixin.py:188} INFO - [2024-01-16T15:01:27.444+0000] {dag.py:3820} INFO - Setting next_dagrun for example_nested_branch_dag to 2024-01-15T00:00:00+00:00, run_after=2024-01-16T00:00:00+00:00
[2024-01-16T15:01:27.462+0000] {processor.py:183} INFO - Processing /home/airflow/.local/lib/python3.8/site-packages/airflow/example_dags/example_nested_branch_dag.py took 0.089 seconds
[2024-01-16T15:01:58.172+0000] {processor.py:161} INFO - Started process (PID=1170) to work on /home/airflow/.local/lib/python3.8/site-packages/airflow/example_dags/example_nested_branch_dag.py
[2024-01-16T15:01:58.173+0000] {processor.py:830} INFO - Processing file /home/airflow/.local/lib/python3.8/site-packages/airflow/example_dags/example_nested_branch_dag.py for tasks to queue
[2024-01-16T15:01:58.175+0000] {logging_mixin.py:188} INFO - [2024-01-16T15:01:58.175+0000] {dagbag.py:538} INFO - Filling up the DagBag from /home/airflow/.local/lib/python3.8/site-packages/airflow/example_dags/example_nested_branch_dag.py
[2024-01-16T15:01:58.188+0000] {processor.py:840} INFO - DAG(s) 'example_nested_branch_dag' retrieved from /home/airflow/.local/lib/python3.8/site-packages/airflow/example_dags/example_nested_branch_dag.py
[2024-01-16T15:01:58.214+0000] {logging_mixin.py:188} INFO - [2024-01-16T15:01:58.214+0000] {dag.py:3033} INFO - Sync 1 DAGs
[2024-01-16T15:01:58.240+0000] {logging_mixin.py:188} INFO - [2024-01-16T15:01:58.240+0000] {dag.py:3820} INFO - Setting next_dagrun for example_nested_branch_dag to 2024-01-15T00:00:00+00:00, run_after=2024-01-16T00:00:00+00:00
[2024-01-16T15:01:58.258+0000] {processor.py:183} INFO - Processing /home/airflow/.local/lib/python3.8/site-packages/airflow/example_dags/example_nested_branch_dag.py took 0.089 seconds
[2024-01-16T15:02:28.924+0000] {processor.py:161} INFO - Started process (PID=1224) to work on /home/airflow/.local/lib/python3.8/site-packages/airflow/example_dags/example_nested_branch_dag.py
[2024-01-16T15:02:28.925+0000] {processor.py:830} INFO - Processing file /home/airflow/.local/lib/python3.8/site-packages/airflow/example_dags/example_nested_branch_dag.py for tasks to queue
[2024-01-16T15:02:28.927+0000] {logging_mixin.py:188} INFO - [2024-01-16T15:02:28.927+0000] {dagbag.py:538} INFO - Filling up the DagBag from /home/airflow/.local/lib/python3.8/site-packages/airflow/example_dags/example_nested_branch_dag.py
[2024-01-16T15:02:28.941+0000] {processor.py:840} INFO - DAG(s) 'example_nested_branch_dag' retrieved from /home/airflow/.local/lib/python3.8/site-packages/airflow/example_dags/example_nested_branch_dag.py
[2024-01-16T15:02:28.967+0000] {logging_mixin.py:188} INFO - [2024-01-16T15:02:28.967+0000] {dag.py:3033} INFO - Sync 1 DAGs
[2024-01-16T15:02:28.993+0000] {logging_mixin.py:188} INFO - [2024-01-16T15:02:28.993+0000] {dag.py:3820} INFO - Setting next_dagrun for example_nested_branch_dag to 2024-01-15T00:00:00+00:00, run_after=2024-01-16T00:00:00+00:00
[2024-01-16T15:02:29.012+0000] {processor.py:183} INFO - Processing /home/airflow/.local/lib/python3.8/site-packages/airflow/example_dags/example_nested_branch_dag.py took 0.091 seconds
[2024-01-16T15:02:59.726+0000] {processor.py:161} INFO - Started process (PID=1279) to work on /home/airflow/.local/lib/python3.8/site-packages/airflow/example_dags/example_nested_branch_dag.py
[2024-01-16T15:02:59.727+0000] {processor.py:830} INFO - Processing file /home/airflow/.local/lib/python3.8/site-packages/airflow/example_dags/example_nested_branch_dag.py for tasks to queue
[2024-01-16T15:02:59.729+0000] {logging_mixin.py:188} INFO - [2024-01-16T15:02:59.728+0000] {dagbag.py:538} INFO - Filling up the DagBag from /home/airflow/.local/lib/python3.8/site-packages/airflow/example_dags/example_nested_branch_dag.py
[2024-01-16T15:02:59.738+0000] {processor.py:840} INFO - DAG(s) 'example_nested_branch_dag' retrieved from /home/airflow/.local/lib/python3.8/site-packages/airflow/example_dags/example_nested_branch_dag.py
[2024-01-16T15:02:59.765+0000] {logging_mixin.py:188} INFO - [2024-01-16T15:02:59.765+0000] {dag.py:3033} INFO - Sync 1 DAGs
[2024-01-16T15:02:59.802+0000] {logging_mixin.py:188} INFO - [2024-01-16T15:02:59.801+0000] {dag.py:3820} INFO - Setting next_dagrun for example_nested_branch_dag to 2024-01-15T00:00:00+00:00, run_after=2024-01-16T00:00:00+00:00
[2024-01-16T15:02:59.829+0000] {processor.py:183} INFO - Processing /home/airflow/.local/lib/python3.8/site-packages/airflow/example_dags/example_nested_branch_dag.py took 0.107 seconds
